<?xml version="1.0" encoding="utf-8"?>
<svg viewBox="223.491 224.863 21.94 22.852" xmlns="http://www.w3.org/2000/svg">
  <ellipse style="stroke: rgb(0, 0, 0); fill-rule: nonzero; fill-opacity: 0.99; paint-order: fill; fill: rgba(245, 1, 1, 0.99); stroke-linecap: square; stroke-width: 0px;" cx="234.461" cy="236.289" rx="10.97" ry="11.426"/>
</svg>